{
    "code": 1,
    "status": 200,
    "data": [
        {
            "id": "1001",
            "category": "Clothing",
            "subCategory": "Men's Sportswear",
            "productName": "Full Length Compression Mock",
            "brand": "PowerLayer",
            "productDescription": "Compression Baselayers Thermal Under Shirt Mock Top, 80% Polyester, 20% Elastane",
            "price": "19.99",
            "color": "http://192.168.16.48:88/ARCImages/Color/bluecolor.png",
			"colorName":"Blue",
			"size": "Large",
            "totalQuantity": "60",
			"reviews": "I purchased one of these and now have several. Used as a winter base layer for my tennis and adventure runs, it is warm and keeps me feeling dry even when damp.",
			"detailImage": "http://www.diaryabout.com/wp-content/uploads/2014/04/url-small.jpg",
			"ARImage":"http://iceclearmedia.com/wp-content/uploads/2011/04/SEO-and-url-Shorteners.jpg",
			"location":[
					{
					"address": "Bayshore Town Center, 5800 North Bayshore Drive, Glendale, WI 53217",
					"locationQuantity": "4",
					"size": "Large",
					"lat":"24.8477996",
					"long":"67.0340065"
					},
					{
					"address": "Mayfair, 2500 North Mayfair Road, Wauwatosa, WI 53226",
					"locationQuantity": "4",
					"size": "Large",
					"lat":"24.8556108",
					"long":"67.0389292"
					},
					{
					"address": "Southridge Mall, 5300 S 76th St., Glendale, WI 53129",
					"locationQuantity": "4",
					"size": "Large",
					"lat":"24.8614622",
					"long":"67.0099388"
					}
			]
        },
       {
            "id": "1002",
            "category": "Food",
            "subCategory": "Spices",
            "productName": "Williams Sonoma Burning Hot Wing Sauce",
            "brand": "Williams-Sonoma",
            "productDescription": "Add blazing-hot zing to your chicken wings with our spicy sauce- carefully selected blend of birdseye, cayenne, and arbol chillies.",
            "price": "10.95",
            "color": "n/a",
			"colorName":"n/a",
			"size": "10.5oz",
            "totalQuantity": "200",
			"reviews": "Not only is this sauce wonderful for wings.  This can be used for burgers, chicken, dressing… there are so many options.",
			"detailImage": "http://www.diaryabout.com/wp-content/uploads/2014/04/url-small.jpg",
			"ARImage":"http://iceclearmedia.com/wp-content/uploads/2011/04/SEO-and-url-Shorteners.jpg",
			"location":[
					{
					"address": "Southridge Mall, 5300 S 76th St., Glendale, WI 53129",
					"locationQuantity": "100",
					"size": "10.5oz",
					"lat":"24.8477996",
					"long":"67.0340065"
					},
					{
					"address": "Bayshore Town Center, 5800 North Bayshore Drive, Glendale, WI 53217",
					"locationQuantity": "50",
					"size": "10.5oz",
					"lat":"24.8556108",
					"long":"67.0389292"
					},
					{
					"address": "Mayfair, 2500 North Mayfair Road, Wauwatosa, WI 53226",
					"locationQuantity": "50",
					"size": "10.5oz",
					"lat":"24.8614622",
					"long":"67.0099388"
					}
			]
        },
		{
            "id": "1123",
            "category": "Food",
            "subCategory": "Chocolate",
            "productName": "Enstrom Milk Chocolate Almond Toffee",
            "brand": "Omaha Steaks",
            "productDescription": "Made with fresh California almonds, pure cane sugar and sweet cream butter, this toffee is sticky, chewy, crunchy, rich and sweet.",
            "price": "22.99",
            "color": "n/a",
			"colorName":"n/a",
			"size": "n/a",
            "totalQuantity": "50",
			"reviews": "Delicious!!! Perfect for a gift.",
			"detailImage": "http://www.diaryabout.com/wp-content/uploads/2014/04/url-small.jpg",
			"ARImage":"http://iceclearmedia.com/wp-content/uploads/2011/04/SEO-and-url-Shorteners.jpg",
			"location":[
					{
					"address": "Southridge Mall, 5300 S 76th St., Glendale, WI 53129",
					"locationQuantity": "20",
					"size": "n/a",
					"lat":"24.8477996",
					"long":"67.0340065"
					},
					{
					"address": "Bayshore Town Center, 5800 North Bayshore Drive, Glendale, WI 53217",
					"locationQuantity": "10",
					"size": "n/a",
					"lat":"24.8556108",
					"long":"67.0389292"
					},
					{
					"address": "Mayfair, 2500 North Mayfair Road, Wauwatosa, WI 53226",
					"locationQuantity": "10",
					"size": "n/a",
					"lat":"24.8614622",
					"long":"67.0099388"
					}
			]
        },
		{
            "id": "2312",
            "category": "Footwear",
            "subCategory": "Women's Dress Shoe",
            "productName": "Calvin Klein Gayle",
            "brand": "Calvin Klein",
            "productDescription": "Easy slip-on wear, Pointed-toe silhouette, Synthetic lining, Lightly padded footbed, Imported, Heel Height: 3 in, Weight: 7 oz",
            "price": "99.00",
            "color": "http://192.168.16.48:88/ARCImages/Color/bluecolor.png",
			"colorName":"Blue",
			"size": "7",
            "totalQuantity": "48",
			"reviews": "The cutest and most comfortable heels I have ever owned.  The heel is nice and low, so they are plenty comfortable. ",
			"detailImage": "http://www.diaryabout.com/wp-content/uploads/2014/04/url-small.jpg",
			"ARImage":"http://iceclearmedia.com/wp-content/uploads/2011/04/SEO-and-url-Shorteners.jpg",
			"location":[
					{
					"address": "Southridge Mall, 5300 S 76th St., Glendale, WI 53129",
					"locationQuantity": "",
					"size": "7",
					"lat":"24.8477996",
					"long":"67.0340065"
					},
					{
					"address": "Mayfair, 2500 North Mayfair Road, Wauwatosa, WI 53226",
					"locationQuantity": "",
					"size": "8",
					"lat":"24.8556108",
					"long":"67.0389292"
					},
					{
					"address": "Bayshore Town Center, 5800 North Bayshore Drive, Glendale, WI 53217",
					"locationQuantity": "",
					"size": "8",
					"lat":"24.8614622",
					"long":"67.0099388"
					}
			]
        },
		{
            "id": "4321",
            "category": "Home & Garden",
            "subCategory": "Pillows",
            "productName": "Lattice Fretwork Pillow Cover",
            "brand": "Restoration Hardware",
            "productDescription": "85% cotton, 15% rayon, 100% cotton eyelash fringe trim, pillow insert sold separately, inserts are sized 2inches larger than our pillow covers to create fuller pillow",
            "price": "44",
            "color": "http://192.168.16.48:88/ARCImages/Color/bluecolor.png",
			"colorName":"Blue",
			"size": "n/a",
            "totalQuantity": "40",
			"reviews": "Looks great in my living room.",
			"detailImage": "http://www.diaryabout.com/wp-content/uploads/2014/04/url-small.jpg",
			"ARImage":"http://iceclearmedia.com/wp-content/uploads/2011/04/SEO-and-url-Shorteners.jpg",
			"location":[
					{
					"address": "Bayshore Town Center, 5800 North Bayshore Drive, Glendale, WI 53217",
					"locationQuantity": "20",
					"size": "n/a",
					"lat":"24.8477996",
					"long":"67.0340065"
					},
					{
					"address": "Mayfair, 2500 North Mayfair Road, Wauwatosa, WI 53226",
					"locationQuantity": "10",
					"size": "n/a",
					"lat":"24.8556108",
					"long":"67.0389292"
					},
					{
					"address": "Southridge Mall, 5300 S 76th St., Glendale, WI 53129",
					"locationQuantity": "10",
					"size": "n/a",
					"lat":"24.8614622",
					"long":"67.0099388"
					}
			]
        },
		{
            "id": "6565",
            "category": "Clothing",
            "subCategory": "Outerwear",
            "productName": "The North Face Women's ThermoBall Hybrid Insulated Jacket",
            "brand": "The North Face",
            "productDescription": "Active fit, ThermoBall and trade insulation, Drop hood with bound opening, secure-zip hand pockets, Fabric: 90% polyester, 10% elastane with PrimaLoft insulation",
            "price": "180.00",
            "color": "http://192.168.16.48:88/ARCImages/Color/bluecolor.png",
			"colorName":"Blue",
			"size": "Medium",
            "totalQuantity": "200",
			"reviews": "Warm, form fitting yet comfortable and flattering. Not to mention very fashionable!",
			"detailImage": "http://www.diaryabout.com/wp-content/uploads/2014/04/url-small.jpg",
			"ARImage":"http://iceclearmedia.com/wp-content/uploads/2011/04/SEO-and-url-Shorteners.jpg",
			"location":[
					{
					"address": "Southridge Mall, 5300 S 76th St., Glendale, WI 53129",
					"locationQuantity": "20",
					"size": "Medium",
					"lat":"24.8477996",
					"long":"67.0340065"
					},
					{
					"address": "Mayfair, 2500 North Mayfair Road, Wauwatosa, WI 53226",
					"locationQuantity": "20",
					"size": "Large",
					"lat":"24.8556108",
					"long":"67.0389292"
					},
					{
					"address": "Bayshore Town Center, 5800 North Bayshore Drive, Glendale, WI 53217",
					"locationQuantity": "20",
					"size": "Large",
					"lat":"24.8614622",
					"long":"67.0099388"
					}
			]
        },
		{
            "id": "6642",
            "category": "Food",
            "subCategory": "Mixes",
            "productName": "Red Velvet Molten Lava Cake",
            "brand": "Williams-Sonoma",
            "productDescription": "Voluptuous individual molten cakes make an inforgettable finale to an elegant evening.  Just add butter, vinegar, and water to our premium mix.",
            "price": "25.95",
            "color": "http://192.168.16.48:88/ARCImages/Color/bluecolor.png",
			"colorName":"Blue",
			"size": "21.45oz",
            "totalQuantity": "60",
			"reviews": "Easy to make.  Tastes delicious!",
			"detailImage": "http://www.diaryabout.com/wp-content/uploads/2014/04/url-small.jpg",
			"ARImage":"http://iceclearmedia.com/wp-content/uploads/2011/04/SEO-and-url-Shorteners.jpg",
			"location":[
					{
					"address": "Southridge Mall, 5300 S 76th St., Glendale, WI 53129",
					"locationQuantity": "20",
					"size": "21.45oz",
					"lat":"24.8477996",
					"long":"67.0340065"
					},
					{
					"address": "Bayshore Town Center, 5800 North Bayshore Drive, Glendale, WI 53217",
					"locationQuantity": "20",
					"size": "21.45oz",
					"lat":"24.8556108",
					"long":"67.0389292"
					},
					{
					"address": "Mayfair, 2500 North Mayfair Road, Wauwatosa, WI 53226",
					"locationQuantity": "20",
					"size": "21.45oz",
					"lat":"24.8614622",
					"long":"67.0099388"
					}
			]
        },
		{
            "id": "6986",
            "category": "Jewelry",
            "subCategory": "Men's Watch",
            "productName": "Invicta Men's 6986 Pro Diver Collection Watch",
            "brand": "Invicta",
            "productDescription": "Precise Swiss-Quartz movement, Mineral crystal, Black polyurethane strap, Water resistant to 330 feet",
            "price": "114.99",
            "color": "http://192.168.16.48:88/ARCImages/Color/bluecolor.png",
			"colorName":"Blue",
			"size": "n/a",
            "totalQuantity": "30",
			"reviews": "Watch arrived on time as promised, nice looking watch, think hard rubber wrist band.",
			"detailImage": "http://www.diaryabout.com/wp-content/uploads/2014/04/url-small.jpg",
			"ARImage":"http://iceclearmedia.com/wp-content/uploads/2011/04/SEO-and-url-Shorteners.jpg",
			"location":[
					{
					"address": "Mayfair, 2500 North Mayfair Road, Wauwatosa, WI 53226",
					"locationQuantity": "10",
					"size": "n/a",
					"lat":"24.8477996",
					"long":"67.0340065"
					},
					{
					"address": "Bayshore Town Center, 5800 North Bayshore Drive, Glendale, WI 53217",
					"locationQuantity": "10",
					"size": "n/a",
					"lat":"24.8556108",
					"long":"67.0389292"
					},
					{
					"address": "Southridge Mall, 5300 S 76th St., Glendale, WI 53129",
					"locationQuantity": "10",
					"size": "n/a",
					"lat":"24.8614622",
					"long":"67.0099388"
					}
			]
        },
		{
            "id": "7794",
            "category": "Footwear",
            "subCategory": "Children's Athletic Shoe",
            "productName": "Nike Air Zoom Pegasus 40",
            "brand": "Nike",
            "productDescription": "Low-profile midsole, Contoured forefoot for a natural feel and smooth transition, Lightweight mesh upper with no-sew overlays",
            "price": "80.00",
            "color": "http://192.168.16.48:88/ARCImages/Color/bluecolor.png",
			"colorName":"Blue",
			"size": "4",
            "totalQuantity": "240",
			"reviews": "My son absolutely loves this shoe. He says it's very comfortable.",
			"detailImage": "http://www.diaryabout.com/wp-content/uploads/2014/04/url-small.jpg",
			"ARImage":"http://iceclearmedia.com/wp-content/uploads/2011/04/SEO-and-url-Shorteners.jpg",
			"location":[
					{
					"address": "Mayfair, 2500 North Mayfair Road, Wauwatosa, WI 53226",
					"locationQuantity": "20",
					"size": "4",
					"lat":"24.8477996",
					"long":"67.0340065"
					},
					{
					"address": "Southridge Mall, 5300 S 76th St., Glendale, WI 53129",
					"locationQuantity": "20",
					"size": "4",
					"lat":"24.8556108",
					"long":"67.0389292"
					},
					{
					"address": "Bayshore Town Center, 5800 North Bayshore Drive, Glendale, WI 53217",
					"locationQuantity": "20",
					"size": "4",
					"lat":"24.8614622",
					"long":"67.0099388"
					}
			]
        },
		{
            "id": "9222",
            "category": "Footwear",
            "subCategory": "Men's Dress Shoe",
            "productName": "Giorgio Brutini Thorton",
            "brand": "Giorgio Burtini",
            "productDescription": "Leather upper with tonal stitching, Lace up front closure with blind eyelets, Man-made lining and insole",
            "price": "109",
            "color": "http://192.168.16.48:88/ARCImages/Color/bluecolor.png",
			"colorName":"Blue",
			"size": "12",
            "totalQuantity": "180",
			"reviews": "Comfortable, dress/casual shoe.",
			"detailImage": "http://www.diaryabout.com/wp-content/uploads/2014/04/url-small.jpg",
			"ARImage":"http://iceclearmedia.com/wp-content/uploads/2011/04/SEO-and-url-Shorteners.jpg",
			"location":[
					{
					"address": "Mayfair, 2500 North Mayfair Road, Wauwatosa, WI 53226",
					"locationQuantity": "20",
					"size": "12",
					"lat":"24.8477996",
					"long":"67.0340065"
					},
					{
					"address": "Southridge Mall, 5300 S 76th St., Glendale, WI 53129",
					"locationQuantity": "20",
					"size": "12",
					"lat":"24.8556108",
					"long":"67.0389292"
					},
					{
					"address": "Bayshore Town Center, 5800 North Bayshore Drive, Glendale, WI 53217",
					"locationQuantity": "20",
					"size": "12",
					"lat":"24.8614622",
					"long":"67.0099388"
					}
			]
        },{
            "id": "45454",
            "category": "Food",
            "subCategory": "Spices",
            "productName": "Private Reserve American Steak Rub",
            "brand": "Omaha Steaks",
            "productDescription": "This tasteful blend of superb seasonings: cracked pepper, garlic and sea salt gives you the perfect way to complement the finest of steaks that you serve",
            "price": "7.99",
            "color": "n/a",
			"colorName":"n/a",
			"size": "12 oz",
            "totalQuantity": "100",
			"reviews": "Delicious.  My favorite steak seasoning.",
			"detailImage": "http://www.diaryabout.com/wp-content/uploads/2014/04/url-small.jpg",
			"ARImage":"http://iceclearmedia.com/wp-content/uploads/2011/04/SEO-and-url-Shorteners.jpg",
			"location":[
					{
					"address": "Bayshore Town Center, 5800 North Bayshore Drive, Glendale, WI 53217",
					"locationQuantity": "",
					"size": "12 oz",
					"lat":"24.8477996",
					"long":"67.0340065"
					},
					{
					"address": "Mayfair, 2500 North Mayfair Road, Wauwatosa, WI 53226",
					"locationQuantity": "",
					"size": "12 oz",
					"lat":"24.8556108",
					"long":"67.0389292"
					},
					{
					"address": "Southridge Mall, 5300 S 76th St., Glendale, WI 53129",
					"locationQuantity": "",
					"size": "12 oz",
					"lat":"24.8614622",
					"long":"67.0099388"
					}
			]
        },{
            "id": "78955",
            "category": "Clothing",
            "subCategory": "Men's Outerwear",
            "productName": "Zeus Jacket",
            "brand": "Marmot",
            "productDescription": "Light, ultra warm, and ultra packable, the Zeus Jacket is made with an amazingly lightweight down-proof fabric stuffed with the finest quality 700 fill-power down.",
            "price": "200.00",
            "color": "http://192.168.16.48:88/ARCImages/Color/bluecolor.png",
			"colorName":"Blue",
			"size": "Large",
            "totalQuantity": "120",
			"reviews": "I bought this jacket for the 2014/2015 ski season. This jacket looks nice, but dosen't keep me as warm as it should for $200.00.",
			"detailImage": "http://www.diaryabout.com/wp-content/uploads/2014/04/url-small.jpg",
			"ARImage":"http://iceclearmedia.com/wp-content/uploads/2011/04/SEO-and-url-Shorteners.jpg",
			"location":[
					{
					"address": "Bayshore Town Center, 5800 North Bayshore Drive, Glendale, WI 53217",
					"locationQuantity": "10",
					"size": "Large",
					"lat":"24.8477996",
					"long":"67.0340065"
					}
			]
       
        },
		{
            "id": "78956",
            "category": "Clothing",
            "subCategory": "Men's Outerwear",
            "productName": "Zeus Jacket",
            "brand": "Marmot",
            "productDescription": "Light, ultra warm, and ultra packable, the Zeus Jacket is made with an amazingly lightweight down-proof fabric stuffed with the finest quality 700 fill-power down.",
            "price": "200.00",
            "color": "http://192.168.16.48:88/ARCImages/Color/bluecolor.png",
			"colorName":"Blue",
			"size": "Large",
            "totalQuantity": "120",
			"reviews": "I bought this jacket for the 2014/2015 ski season. This jacket looks nice, but dosen't keep me as warm as it should for $200.00.",
			"detailImage": "http://www.diaryabout.com/wp-content/uploads/2014/04/url-small.jpg",
			"ARImage":"http://iceclearmedia.com/wp-content/uploads/2011/04/SEO-and-url-Shorteners.jpg",
			"location":[
					{
					"address": "Mayfair, 2500 North Mayfair Road, Wauwatosa, WI 53226",
					"locationQuantity": "10",
					"size": "Large",
					"lat":"24.8556108",
					"long":"67.0389292"
					}
			]
       
        },
		{
            "id": "78954",
            "category": "Clothing",
            "subCategory": "Men's Outerwear",
            "productName": "Zeus Jacket",
            "brand": "Marmot",
            "productDescription": "Light, ultra warm, and ultra packable, the Zeus Jacket is made with an amazingly lightweight down-proof fabric stuffed with the finest quality 700 fill-power down.",
            "price": "200.00",
            "color": "http://192.168.16.48:88/ARCImages/Color/bluecolor.png",
			"colorName":"Blue",
			"size": "Large",
            "totalQuantity": "120",
			"reviews": "I bought this jacket for the 2014/2015 ski season. This jacket looks nice, but dosen't keep me as warm as it should for $200.00.",
			"detailImage": "http://www.diaryabout.com/wp-content/uploads/2014/04/url-small.jpg",
			"ARImage":"http://iceclearmedia.com/wp-content/uploads/2011/04/SEO-and-url-Shorteners.jpg",
			"location":[
					{
					"address": "Southridge Mall, 5300 S 76th St., Glendale, WI 53129",
					"locationQuantity": "10",
					"size": "Large",
					"lat":"24.855611",
					"long":"67.038929"
					}
			]
       
        },
		{
            "id": "81231",
            "category": "Food",
            "subCategory": "Steak",
            "productName": "Top Sirloin",
            "brand": "Omaha Steaks",
            "productDescription": "Carved from the center of the sirloin, our Top Sirloins are naturally lean and bursting with bold, beefy flavor.",
            "price": "59.99",
            "color": "n/a",
			"colorName":"n/a",
			"size": "10oz.",
            "totalQuantity": "200",
			"reviews": "The perfect cut.  High quality meat.",
			"detailImage": "http://www.diaryabout.com/wp-content/uploads/2014/04/url-small.jpg",
			"ARImage":"http://iceclearmedia.com/wp-content/uploads/2011/04/SEO-and-url-Shorteners.jpg",
			"location":[
					{
					"address": "Southridge Mall, 5300 S 76th St., Glendale, WI 53129",
					"locationQuantity": "20",
					"size": "10oz.",
					"lat":"24.8477996",
					"long":"67.0340065"
					},
					{
					"address": "Bayshore Town Center, 5800 North Bayshore Drive, Glendale, WI 53217",
					"locationQuantity": "20",
					"size": "10oz.",
					"lat":"24.8556108",
					"long":"67.0389292"
					},
					{
					"address": "Mayfair, 2500 North Mayfair Road, Wauwatosa, WI 53226",
					"locationQuantity": "20",
					"size": "10oz.",
					"lat":"24.8614622",
					"long":"67.0099388"
					}
			]
       
        }
    ]
}